<svg id="Layer_1" data-name="Layer 1" xmlns="http://www.w3.org/2000/svg" viewBox="0 0 174 174">
	<title>arrow</title>
	<g class="svg-btn">
		<g class="svg-circle">
			<path d="M100.77,13.06a86,86,0,1,1-86,86,86.1,86.1,0,0,1,86-86m0-1a87,87,0,1,0,87,87,87,87,0,0,0-87-87Z" transform="translate(-13.77 -12.06)"/>
		</g>
		<g class="svg-arrow">
			<path d="M100.68,140.57h.18l.5-.5V57.47h-1.18v82.6Z" transform="translate(-13.77 -12.06)"/>
			<path d="M100.76,140.64h0v-1.36l-22-22-.69.69Z" transform="translate(-13.77 -12.06)"/>
			<path d="M100.78,140.64h0v-1.36l22-22,.69.69Z" transform="translate(-13.77 -12.06)"/>
		</g>
	</g>
</svg>